Lab11/pm.vcd
$date
	Sun Apr  8 17:56:19 2018
$end
$version
	Icarus Verilog
$end
$timescale
	1s
$end
$scope module test $end
$var wire 32 ! PC [31:0] $end
$var reg 1 " clk $end
$var reg 1 # done $end
$var reg 1 $ reset $end
$var integer 32 % i [31:0] $end
$scope module pm $end
$var wire 1 & ForwardA $end
$var wire 1 ' ForwardB $end
$var wire 1 ( PCSrc $end
$var wire 1 " clk $end
$var wire 1 ) flush $end
$var wire 1 $ reset $end
$var wire 1 * stall $end
$var wire 1 + zero $end
$var wire 5 , wr_regnumM [4:0] $end
$var wire 5 - wr_regnum [4:0] $end
$var wire 32 . wr_data [31:0] $end
$var wire 5 / rt [4:0] $end
$var wire 5 0 rs [4:0] $end
$var wire 32 1 rd2_dataM [31:0] $end
$var wire 32 2 rd2_data [31:0] $end
$var wire 32 3 rd1_data [31:0] $end
$var wire 5 4 rd [4:0] $end
$var wire 6 5 opcode [5:0] $end
$var wire 32 6 oldrd2_data [31:0] $end
$var wire 32 7 oldrd1_data [31:0] $end
$var wire 30 8 next_PC [31:2] $end
$var wire 32 9 load_data [31:0] $end
$var wire 32 : instM [31:0] $end
$var wire 32 ; inst [31:0] $end
$var wire 32 < imm [31:0] $end
$var wire 6 = funct [5:0] $end
$var wire 32 > alu_out_dataM [31:0] $end
$var wire 32 ? alu_out_data [31:0] $end
$var wire 1 @ RegWriteM $end
$var wire 1 A RegWrite $end
$var wire 1 B RegDst $end
$var wire 30 C PC_target [31:2] $end
$var wire 30 D PC_plus4M [29:0] $end
$var wire 30 E PC_plus4 [31:2] $end
$var wire 32 F PC [31:0] $end
$var wire 1 G MemWriteM $end
$var wire 1 H MemWrite $end
$var wire 1 I MemToRegM $end
$var wire 1 J MemToReg $end
$var wire 1 K MemReadM $end
$var wire 1 L MemRead $end
$var wire 32 M B_data [31:0] $end
$var wire 1 N BEQ $end
$var wire 1 O ALUSrc $end
$var wire 3 P ALUOp [2:0] $end
$scope module PC_reg $end
$var wire 1 " clk $end
$var wire 1 Q enable $end
$var wire 1 $ reset $end
$var wire 30 R d [29:0] $end
$var reg 30 S q [29:0] $end
$upscope $end
$scope module PipALUout $end
$var wire 1 " clk $end
$var wire 1 T enable $end
$var wire 1 * reset $end
$var wire 32 U d [31:0] $end
$var reg 32 V q [31:0] $end
$upscope $end
$scope module PiplineM0 $end
$var wire 1 " clk $end
$var wire 1 W enable $end
$var wire 1 * reset $end
$var wire 1 L d $end
$var reg 1 K q $end
$upscope $end
$scope module PiplineM1 $end
$var wire 1 " clk $end
$var wire 1 X enable $end
$var wire 1 * reset $end
$var wire 1 H d $end
$var reg 1 G q $end
$upscope $end
$scope module PiplineM2 $end
$var wire 1 " clk $end
$var wire 1 Y enable $end
$var wire 1 * reset $end
$var wire 1 J d $end
$var reg 1 I q $end
$upscope $end
$scope module PiplineM3 $end
$var wire 1 " clk $end
$var wire 1 Z enable $end
$var wire 1 * reset $end
$var wire 1 A d $end
$var reg 1 @ q $end
$upscope $end
$scope module PiplineM4 $end
$var wire 1 " clk $end
$var wire 1 [ enable $end
$var wire 1 * reset $end
$var wire 5 \ d [4:0] $end
$var reg 5 ] q [4:0] $end
$upscope $end
$scope module PiplineW_D $end
$var wire 1 " clk $end
$var wire 1 ^ enable $end
$var wire 1 * reset $end
$var wire 32 _ d [31:0] $end
$var reg 32 ` q [31:0] $end
$upscope $end
$scope module Piplineinsnew $end
$var wire 1 " clk $end
$var wire 1 a enable $end
$var wire 1 ) reset $end
$var wire 32 b d [31:0] $end
$var reg 32 c q [31:0] $end
$upscope $end
$scope module Piplinepcnew $end
$var wire 1 " clk $end
$var wire 1 d enable $end
$var wire 1 ) reset $end
$var wire 30 e d [29:0] $end
$var reg 30 f q [29:0] $end
$upscope $end
$scope module alu $end
$var wire 32 g out [31:0] $end
$var wire 1 + zero $end
$var wire 32 h inB [31:0] $end
$var wire 32 i inA [31:0] $end
$var wire 3 j control [2:0] $end
$upscope $end
$scope module branch_mux $end
$var wire 30 k out [29:0] $end
$var wire 1 ( sel $end
$var wire 30 l temp1 [29:0] $end
$var wire 30 m temp2 [29:0] $end
$var wire 30 n B [29:0] $end
$var wire 30 o A [29:0] $end
$upscope $end
$scope module data_memory $end
$var wire 32 p addr [31:0] $end
$var wire 1 " clk $end
$var wire 32 q d_out [31:0] $end
$var wire 32 r data_in [31:0] $end
$var wire 32 s data_out [31:0] $end
$var wire 32 t internal_data_in [31:0] $end
$var wire 1 K mem_read $end
$var wire 1 G mem_write $end
$var wire 1 $ reset $end
$var wire 1 u valid_address $end
$var wire 19 v index [18:0] $end
$var integer 32 w i [31:0] $end
$upscope $end
$scope module decode $end
$var wire 1 O ALUSrc $end
$var wire 1 J MemToReg $end
$var wire 1 B RegDst $end
$var wire 1 A RegWrite $end
$var wire 6 x funct [5:0] $end
$var wire 1 y nop $end
$var wire 6 z opcode [5:0] $end
$var wire 1 { op0 $end
$var wire 1 H MemWrite $end
$var wire 1 L MemRead $end
$var wire 1 N BEQ $end
$var wire 3 | ALUOp [2:0] $end
$upscope $end
$scope module imem $end
$var wire 30 } addr [29:0] $end
$var wire 32 ~ data [31:0] $end
$var reg 32 !" i [31:0] $end
$upscope $end
$scope module imm_mux $end
$var wire 32 "" B [31:0] $end
$var wire 32 #" out [31:0] $end
$var wire 1 O sel $end
$var wire 32 $" temp1 [31:0] $end
$var wire 32 %" temp2 [31:0] $end
$var wire 32 &" A [31:0] $end
$upscope $end
$scope module next_PC_adder $end
$var wire 30 '" in1 [29:0] $end
$var wire 30 (" in2 [29:0] $end
$var wire 30 )" out [29:0] $end
$upscope $end
$scope module rd1new $end
$var wire 32 *" B [31:0] $end
$var wire 32 +" out [31:0] $end
$var wire 1 & sel $end
$var wire 32 ," temp1 [31:0] $end
$var wire 32 -" temp2 [31:0] $end
$var wire 32 ." A [31:0] $end
$upscope $end
$scope module rd2new $end
$var wire 32 /" B [31:0] $end
$var wire 32 0" out [31:0] $end
$var wire 1 ' sel $end
$var wire 32 1" temp1 [31:0] $end
$var wire 32 2" temp2 [31:0] $end
$var wire 32 3" A [31:0] $end
$upscope $end
$scope module rd_mux $end
$var wire 5 4" A [4:0] $end
$var wire 5 5" B [4:0] $end
$var wire 5 6" out [4:0] $end
$var wire 1 B sel $end
$var wire 5 7" temp1 [4:0] $end
$var wire 5 8" temp2 [4:0] $end
$upscope $end
$scope module rf $end
$var wire 1 " clock $end
$var wire 32 9" internal_rdData [31:0] $end
$var wire 5 :" rdNum [4:0] $end
$var wire 1 @ rdWriteEnable $end
$var wire 1 $ reset $end
$var wire 32 ;" rsData [31:0] $end
$var wire 5 <" rsNum [4:0] $end
$var wire 32 =" rtData [31:0] $end
$var wire 5 >" rtNum [4:0] $end
$var wire 32 ?" rdData [31:0] $end
$var integer 32 @" i [31:0] $end
$upscope $end
$scope module target_PC_adder $end
$var wire 30 A" in1 [29:0] $end
$var wire 30 B" in2 [29:0] $end
$var wire 30 C" out [29:0] $end
$upscope $end
$scope module wb_mux $end
$var wire 32 D" A [31:0] $end
$var wire 32 E" B [31:0] $end
$var wire 32 F" out [31:0] $end
$var wire 1 I sel $end
$var wire 32 G" temp1 [31:0] $end
$var wire 32 H" temp2 [31:0] $end
$upscope $end
$upscope $end
$upscope $end
$scope module test $end
$scope module pm $end
$scope module rf $end
$var reg 32 I" \r[0] [31:0] $end
$upscope $end
$upscope $end
$upscope $end
$scope module test $end
$scope module pm $end
$scope module rf $end
$var reg 32 J" \r[1] [31:0] $end
$upscope $end
$upscope $end
$upscope $end
$scope module test $end
$scope module pm $end
$scope module rf $end
$var reg 32 K" \r[2] [31:0] $end
$upscope $end
$upscope $end
$upscope $end
$scope module test $end
$scope module pm $end
$scope module rf $end
$var reg 32 L" \r[3] [31:0] $end
$upscope $end
$upscope $end
$upscope $end
$scope module test $end
$scope module pm $end
$scope module rf $end
$var reg 32 M" \r[4] [31:0] $end
$upscope $end
$upscope $end
$upscope $end
$scope module test $end
$scope module pm $end
$scope module rf $end
$var reg 32 N" \r[5] [31:0] $end
$upscope $end
$upscope $end
$upscope $end
$scope module test $end
$scope module pm $end
$scope module rf $end
$var reg 32 O" \r[6] [31:0] $end
$upscope $end
$upscope $end
$upscope $end
$scope module test $end
$scope module pm $end
$scope module rf $end
$var reg 32 P" \r[7] [31:0] $end
$upscope $end
$upscope $end
$upscope $end
$scope module test $end
$scope module pm $end
$scope module rf $end
$var reg 32 Q" \r[8] [31:0] $end
$upscope $end
$upscope $end
$upscope $end
$scope module test $end
$scope module pm $end
$scope module rf $end
$var reg 32 R" \r[9] [31:0] $end
$upscope $end
$upscope $end
$upscope $end
$scope module test $end
$scope module pm $end
$scope module rf $end
$var reg 32 S" \r[10] [31:0] $end
$upscope $end
$upscope $end
$upscope $end
$scope module test $end
$scope module pm $end
$scope module rf $end
$var reg 32 T" \r[11] [31:0] $end
$upscope $end
$upscope $end
$upscope $end
$scope module test $end
$scope module pm $end
$scope module rf $end
$var reg 32 U" \r[12] [31:0] $end
$upscope $end
$upscope $end
$upscope $end
$scope module test $end
$scope module pm $end
$scope module rf $end
$var reg 32 V" \r[13] [31:0] $end
$upscope $end
$upscope $end
$upscope $end
$scope module test $end
$scope module pm $end
$scope module rf $end
$var reg 32 W" \r[14] [31:0] $end
$upscope $end
$upscope $end
$upscope $end
$scope module test $end
$scope module pm $end
$scope module rf $end
$var reg 32 X" \r[15] [31:0] $end
$upscope $end
$upscope $end
$upscope $end
$scope module test $end
$scope module pm $end
$scope module rf $end
$var reg 32 Y" \r[16] [31:0] $end
$upscope $end
$upscope $end
$upscope $end
$scope module test $end
$scope module pm $end
$scope module rf $end
$var reg 32 Z" \r[17] [31:0] $end
$upscope $end
$upscope $end
$upscope $end
$scope module test $end
$scope module pm $end
$scope module rf $end
$var reg 32 [" \r[18] [31:0] $end
$upscope $end
$upscope $end
$upscope $end
$scope module test $end
$scope module pm $end
$scope module rf $end
$var reg 32 \" \r[19] [31:0] $end
$upscope $end
$upscope $end
$upscope $end
$scope module test $end
$scope module pm $end
$scope module rf $end
$var reg 32 ]" \r[20] [31:0] $end
$upscope $end
$upscope $end
$upscope $end
$scope module test $end
$scope module pm $end
$scope module rf $end
$var reg 32 ^" \r[21] [31:0] $end
$upscope $end
$upscope $end
$upscope $end
$scope module test $end
$scope module pm $end
$scope module rf $end
$var reg 32 _" \r[22] [31:0] $end
$upscope $end
$upscope $end
$upscope $end
$scope module test $end
$scope module pm $end
$scope module rf $end
$var reg 32 `" \r[23] [31:0] $end
$upscope $end
$upscope $end
$upscope $end
$scope module test $end
$scope module pm $end
$scope module rf $end
$var reg 32 a" \r[24] [31:0] $end
$upscope $end
$upscope $end
$upscope $end
$scope module test $end
$scope module pm $end
$scope module rf $end
$var reg 32 b" \r[25] [31:0] $end
$upscope $end
$upscope $end
$upscope $end
$scope module test $end
$scope module pm $end
$scope module rf $end
$var reg 32 c" \r[26] [31:0] $end
$upscope $end
$upscope $end
$upscope $end
$scope module test $end
$scope module pm $end
$scope module rf $end
$var reg 32 d" \r[27] [31:0] $end
$upscope $end
$upscope $end
$upscope $end
$scope module test $end
$scope module pm $end
$scope module rf $end
$var reg 32 e" \r[28] [31:0] $end
$upscope $end
$upscope $end
$upscope $end
$scope module test $end
$scope module pm $end
$scope module rf $end
$var reg 32 f" \r[29] [31:0] $end
$upscope $end
$upscope $end
$upscope $end
$scope module test $end
$scope module pm $end
$scope module rf $end
$var reg 32 g" \r[30] [31:0] $end
$upscope $end
$upscope $end
$upscope $end
$scope module test $end
$scope module pm $end
$scope module rf $end
$var reg 32 h" \r[31] [31:0] $end
$upscope $end
$upscope $end
$upscope $end
$enddefinitions $end
#0
$dumpvars
b10000000000010000000000000000 h"
b10000000000010000000000000000 g"
b10000000000010000000000000000 f"
b10000000000010000000000000000 e"
b10000000000010000000000000000 d"
b10000000000010000000000000000 c"
b10000000000010000000000000000 b"
b10000000000010000000000000000 a"
b10000000000010000000000000000 `"
b10000000000010000000000000000 _"
b10000000000010000000000000000 ^"
b10000000000010000000000000000 ]"
b10000000000010000000000000000 \"
b10000000000010000000000000000 ["
b10000000000010000000000000000 Z"
b10000000000010000000000000000 Y"
b10000000000010000000000000000 X"
b10000000000010000000000000000 W"
b10000000000010000000000000000 V"
b10000000000010000000000000000 U"
b10000000000010000000000000000 T"
b10000000000010000000000000000 S"
b10000000000010000000000000000 R"
b10000000000010000000000000000 Q"
b10000000000010000000000000000 P"
b10000000000010000000000000000 O"
b10000000000010000000000000000 N"
b10000000000010000000000000000 M"
b10000000000010000000000000000 L"
b10000000000010000000000000000 K"
b10000000000010000000000000000 J"
b0 I"
bx H"
bx G"
bx F"
bx E"
bx D"
bx C"
bx B"
bx A"
b100000 @"
bx ?"
bx >"
bx ="
bx <"
bx ;"
bx :"
bx 9"
bx 8"
bx 7"
bx 6"
bx 5"
bx 4"
bx 3"
bx 2"
bx 1"
bx 0"
bx /"
bx ."
bx -"
bx ,"
bx +"
bx *"
bx )"
b1 ("
bx '"
bx &"
bx %"
bx $"
bx #"
bx ""
b100000000 !"
bx ~
bx }
bx |
x{
bx z
xy
bx x
b1000000000000000000 w
bx v
xu
bx t
bx s
bx r
bx q
bx p
bx o
bx n
bx m
bx l
bx k
bx j
bx i
bx h
bx g
bx f
bx e
xd
bx c
bx b
xa
bx `
bx _
x^
bx ]
bx \
x[
xZ
xY
xX
xW
bx V
bx U
xT
bx S
bx R
xQ
bx P
xO
xN
bx M
xL
xK
xJ
xI
xH
xG
bx00 F
bx E
bx D
bx C
xB
xA
x@
bx ?
bx >
bx =
bx <
bx ;
bx :
bx 9
bx 8
bx 7
bx 6
bx 5
bx 4
bx 3
bx 2
bx 1
bx 0
bx /
bx .
bx -
bx ,
x+
x*
1)
x(
x'
x&
b100000 %
1$
0#
0"
bx00 !
$end
#6
b0 -
b0 \
b0 6"
1d
1a
1T
1^
1W
1X
1Y
1Z
1[
1Q
b0 8"
b0 7"
0*
b0 B"
b0 %"
b100000000000000000000 '"
b100000000000000000000 }
b0 =
b0 x
1{
b0 5
b0 z
b0 4
b0 5"
b0 /
b0 4"
b0 >"
b0 0
b0 <"
b0 <
b0 ""
b10000000000000000000000 F
b10000000000000000000000 !
b100000000000000000000 S
b100000000000000000000 D
b100000000000000000000 f
b100000000000000000000 A"
b0 :
b0 c
1"
#7
b0 1"
b0 ,"
x)
b0 6
b0 3"
b0 ="
b0 7
b0 ."
b0 ;"
0$
#8
0A
b100000000000000000001 8
b100000000000000000001 R
b100000000000000000001 k
0)
b0 m
b100000000000000000001 l
0(
1B
0O
b0 P
b0 j
b0 |
1y
b100000000000000000000 C
b100000000000000000000 n
b100000000000000000000 C"
b100000000000000000001 E
b100000000000000000001 e
b100000000000000000001 o
b100000000000000000001 )"
0N
0J
0L
0H
#9
b10001110100000100000000000000000 ;
b10001110100000100000000000000000 b
b10001110100000100000000000000000 ~
#12
0"
#18
b0 M
b0 h
b0 #"
b0 $"
b0 2
b0 _
b0 &"
b0 0"
b0 3
b0 i
b0 +"
b0 2"
b0 -"
0'
0&
b0 H"
0{
b100011 5
b100011 z
b10 /
b10 4"
b10 >"
b10100 0
b10100 <"
b100000000000000000001 '"
b100000000000000000001 }
b0 ,
b0 ]
b0 :"
0@
0I
0G
0K
b10001110100000100000000000000000 :
b10001110100000100000000000000000 c
b100000000000000000001 D
b100000000000000000001 f
b100000000000000000001 A"
b10000000000000000000100 F
b10000000000000000000100 !
b100000000000000000001 S
1"
#19
b10000000000010000000000000000 M
b10000000000010000000000000000 h
b10000000000010000000000000000 #"
b10000000000010000000000000000 $"
b10000000000010000000000000000 2
b10000000000010000000000000000 _
b10000000000010000000000000000 &"
b10000000000010000000000000000 0"
b10000000000010000000000000000 3
b10000000000010000000000000000 i
b10000000000010000000000000000 +"
b10000000000010000000000000000 1"
b10000000000010000000000000000 ,"
1+
b10000000000010000000000000000 6
b10000000000010000000000000000 3"
b10000000000010000000000000000 ="
b10000000000010000000000000000 7
b10000000000010000000000000000 ."
b10000000000010000000000000000 ;"
#20
b10 -
b10 \
b10 6"
b0 M
b0 h
b0 #"
1A
b10 7"
b0 $"
b100000000000000000010 8
b100000000000000000010 R
b100000000000000000010 k
0B
1O
b100000000000000000010 l
0y
1J
1L
b100000000000000000010 E
b100000000000000000010 e
b100000000000000000010 o
b100000000000000000010 )"
b100000000000000000001 C
b100000000000000000001 n
b100000000000000000001 C"
#21
0+
b10001110100000110000000000000100 ;
b10001110100000110000000000000100 b
b10001110100000110000000000000100 ~
b0 9
b0 s
b0 E"
#22
b10000000000010000000000000000 ?
b10000000000010000000000000000 U
b10000000000010000000000000000 g
#24
0"
#30
b11 -
b11 \
b11 6"
b100 M
b100 h
b100 #"
b11 7"
b100 B"
b100 %"
b1 q
b100000000000000 v
b0 .
b0 ?"
b0 F"
b10000000000010000000000000000 1"
b100000000000000000010 '"
b100000000000000000010 }
b100 =
b100 x
b11 /
b11 4"
b11 >"
b100 <
b100 ""
1u
b0 2"
b0 G"
0'
b10000000000000000001000 F
b10000000000000000001000 !
b100000000000000000010 S
b100000000000000000010 D
b100000000000000000010 f
b100000000000000000010 A"
b10001110100000110000000000000100 :
b10001110100000110000000000000100 c
b10000000000010000000000000000 >
b10000000000010000000000000000 V
b10000000000010000000000000000 p
b10000000000010000000000000000 *"
b10000000000010000000000000000 /"
b10000000000010000000000000000 D"
b10000000000010000000000000000 1
b10000000000010000000000000000 `
b10000000000010000000000000000 r
1K
1I
1@
b10 ,
b10 ]
b10 :"
1"
#31
b0 9"
#32
b100000000000000000011 8
b100000000000000000011 R
b100000000000000000011 k
b100000000000000000011 l
b10000000000010000000000000100 ?
b10000000000010000000000000100 U
b10000000000010000000000000100 g
b100000000000000000011 E
b100000000000000000011 e
b100000000000000000011 o
b100000000000000000011 )"
b100000000000000000110 C
b100000000000000000110 n
b100000000000000000110 C"
#33
b1 .
b1 ?"
b1 F"
b1 H"
b10001110100001000000000000001000 ;
b10001110100001000000000000001000 b
b10001110100001000000000000001000 ~
b1 9
b1 s
b1 E"
b10000000000010000000000000000 t
#34
b1 9"
#36
0"
#42
b100 -
b100 \
b100 6"
b1000 M
b1000 h
b1000 #"
b11111111 q
b100000000000001 v
b100 7"
b1000 B"
b1000 %"
b1000 =
b1000 x
b100 /
b100 4"
b100 >"
b1000 <
b1000 ""
b100000000000000000011 '"
b100000000000000000011 }
b11 ,
b11 ]
b11 :"
b10000000000010000000000000100 >
b10000000000010000000000000100 V
b10000000000010000000000000100 p
b10000000000010000000000000100 *"
b10000000000010000000000000100 /"
b10000000000010000000000000100 D"
b10001110100001000000000000001000 :
b10001110100001000000000000001000 c
b100000000000000000011 D
b100000000000000000011 f
b100000000000000000011 A"
b1 K"
b10000000000000000001100 F
b10000000000000000001100 !
b100000000000000000011 S
1"
#44
b100000000000000000100 8
b100000000000000000100 R
b100000000000000000100 k
b100000000000000000100 l
b10000000000010000000000001000 ?
b10000000000010000000000001000 U
b10000000000010000000000001000 g
b100000000000000000100 E
b100000000000000000100 e
b100000000000000000100 o
b100000000000000000100 )"
b100000000000000001011 C
b100000000000000001011 n
b100000000000000001011 C"
#45
b11111111 .
b11111111 ?"
b11111111 F"
b11111111 H"
b11111111 9
b11111111 s
b11111111 E"
b10001110100001010000000000001100 ;
b10001110100001010000000000001100 b
b10001110100001010000000000001100 ~
#46
b11111111 9"
#48
0"
#54
b10000000000010000000000000000 2
b10000000000010000000000000000 _
b10000000000010000000000000000 &"
b10000000000010000000000000000 0"
b101 -
b101 \
b101 6"
b1100 M
b1100 h
b1100 #"
b10000000000010000000000000000 1"
b0 2"
b101 7"
b1100 B"
b1100 %"
b10000000000 q
b100000000000010 v
0'
b100000000000000000100 '"
b100000000000000000100 }
b1100 =
b1100 x
b101 /
b101 4"
b101 >"
b1100 <
b1100 ""
b10000000000000000010000 F
b10000000000000000010000 !
b100000000000000000100 S
b11111111 L"
b100000000000000000100 D
b100000000000000000100 f
b100000000000000000100 A"
b10001110100001010000000000001100 :
b10001110100001010000000000001100 c
b10000000000010000000000001000 >
b10000000000010000000000001000 V
b10000000000010000000000001000 p
b10000000000010000000000001000 *"
b10000000000010000000000001000 /"
b10000000000010000000000001000 D"
b100 ,
b100 ]
b100 :"
1"
#56
b100000000000000000101 8
b100000000000000000101 R
b100000000000000000101 k
b100000000000000000101 l
b10000000000010000000000001100 ?
b10000000000010000000000001100 U
b10000000000010000000000001100 g
b100000000000000000101 E
b100000000000000000101 e
b100000000000000000101 o
b100000000000000000101 )"
b100000000000000010000 C
b100000000000000010000 n
b100000000000000010000 C"
#57
b10000000000 .
b10000000000 ?"
b10000000000 F"
b10000000000 H"
b10000000000 9
b10000000000 s
b10000000000 E"
b10001110100001100000000000010000 ;
b10001110100001100000000000010000 b
b10001110100001100000000000010000 ~
#58
b10000000000 9"
#60
0"
#66
b110 -
b110 \
b110 6"
b10000 M
b10000 h
b10000 #"
b1100100 q
b100000000000011 v
b110 7"
b10000 B"
b10000 %"
b10000 =
b10000 x
b110 /
b110 4"
b110 >"
b10000 <
b10000 ""
b100000000000000000101 '"
b100000000000000000101 }
b101 ,
b101 ]
b101 :"
b10000000000010000000000001100 >
b10000000000010000000000001100 V
b10000000000010000000000001100 p
b10000000000010000000000001100 *"
b10000000000010000000000001100 /"
b10000000000010000000000001100 D"
b10001110100001100000000000010000 :
b10001110100001100000000000010000 c
b100000000000000000101 D
b100000000000000000101 f
b100000000000000000101 A"
b10000000000 M"
b10000000000000000010100 F
b10000000000000000010100 !
b100000000000000000101 S
1"
#68
b100000000000000000110 8
b100000000000000000110 R
b100000000000000000110 k
b100000000000000000110 l
b10000000000010000000000010000 ?
b10000000000010000000000010000 U
b10000000000010000000000010000 g
b100000000000000000110 E
b100000000000000000110 e
b100000000000000000110 o
b100000000000000000110 )"
b100000000000000010101 C
b100000000000000010101 n
b100000000000000010101 C"
#69
b1100100 .
b1100100 ?"
b1100100 F"
b1100100 H"
b1100100 9
b1100100 s
b1100100 E"
b10101110100001100000000000000100 ;
b10101110100001100000000000000100 b
b10101110100001100000000000000100 ~
#70
b1100100 9"
#72
0"
#78
b10000000000010000000000010000 2
b10000000000010000000000010000 _
b10000000000010000000000010000 &"
b10000000000010000000000010000 0"
b100 M
b100 h
b100 #"
b0 1"
b10000000000010000000000010000 2"
b100 B"
b100 %"
b11001000 q
b100000000000100 v
1'
b100000000000000000110 '"
b100000000000000000110 }
b100 =
b100 x
b101011 5
b101011 z
b100 <
b100 ""
b10000000000000000011000 F
b10000000000000000011000 !
b100000000000000000110 S
b1100100 N"
b100000000000000000110 D
b100000000000000000110 f
b100000000000000000110 A"
b10101110100001100000000000000100 :
b10101110100001100000000000000100 c
b10000000000010000000000010000 >
b10000000000010000000000010000 V
b10000000000010000000000010000 p
b10000000000010000000000010000 *"
b10000000000010000000000010000 /"
b10000000000010000000000010000 D"
b110 ,
b110 ]
b110 :"
1"
#80
0d
0a
0T
0^
0W
0X
0Y
0Z
0[
0Q
1*
b0 -
b0 \
b0 6"
0A
b100000000000000000111 8
b100000000000000000111 R
b100000000000000000111 k
b0 7"
b100000000000000000111 l
1B
b10000000000010000000000000100 ?
b10000000000010000000000000100 U
b10000000000010000000000000100 g
b100000000000000000111 E
b100000000000000000111 e
b100000000000000000111 o
b100000000000000000111 )"
0J
0L
1H
b100000000000000001010 C
b100000000000000001010 n
b100000000000000001010 C"
#81
b11001000 .
b11001000 ?"
b11001000 F"
b11001000 H"
b11001000 9
b11001000 s
b11001000 E"
b10001110100001110000000000000100 ;
b10001110100001110000000000000100 b
b10001110100001110000000000000100 ~
#82
b11001000 9"
#84
0"
#90
1d
1a
1T
1^
1W
1X
1Y
1Z
1[
1Q
b10000000000010000000000000000 1"
b0 .
b0 ?"
b0 F"
0*
b11011110101011011011111011101111 q
b0 v
b10000000000010000000000000000 2
b10000000000010000000000000000 _
b10000000000010000000000000000 &"
b10000000000010000000000000000 0"
0'
b0 H"
0u
b0 2"
b0 ,
b0 ]
b0 :"
0@
0I
0K
b0 1
b0 `
b0 r
b0 >
b0 V
b0 p
b0 *"
b0 /"
b0 D"
b11001000 O"
1"
#91
b11001000 2
b11001000 _
b11001000 &"
b11001000 0"
b11001000 1"
b0 9"
b11001000 6
b11001000 3"
b11001000 ="
#93
b0 9
b0 s
b0 E"
b0 t
#96
0"
#102
b11111111 q
b100000000000001 v
b10000000000010000000000000100 .
b10000000000010000000000000100 ?"
b10000000000010000000000000100 F"
b100000000000000000111 '"
b100000000000000000111 }
b100011 5
b100011 z
b111 /
b111 4"
b111 >"
1u
b10000000000010000000000000100 G"
b10000000000000000011100 F
b10000000000000000011100 !
b100000000000000000111 S
b100000000000000000111 D
b100000000000000000111 f
b100000000000000000111 A"
b10001110100001110000000000000100 :
b10001110100001110000000000000100 c
b10000000000010000000000000100 >
b10000000000010000000000000100 V
b10000000000010000000000000100 p
b10000000000010000000000000100 *"
b10000000000010000000000000100 /"
b10000000000010000000000000100 D"
b11001000 1
b11001000 `
b11001000 r
1G
1"
#103
b10000000000010000000000000000 2
b10000000000010000000000000000 _
b10000000000010000000000000000 &"
b10000000000010000000000000000 0"
b10000000000010000000000000000 1"
b10000000000010000000000000100 9"
b10000000000010000000000000000 6
b10000000000010000000000000000 3"
b10000000000010000000000000000 ="
#104
b111 -
b111 \
b111 6"
1A
b100000000000000001000 8
b100000000000000001000 R
b100000000000000001000 k
b111 7"
b100000000000000001000 l
0B
b100000000000000001000 E
b100000000000000001000 e
b100000000000000001000 o
b100000000000000001000 )"
1J
1L
0H
b100000000000000001011 C
b100000000000000001011 n
b100000000000000001011 C"
#105
b101001010100000000100000 ;
b101001010100000000100000 b
b101001010100000000100000 ~
b11001000 t
#108
0"
#114
b101 -
b101 \
b101 6"
b100000000100000 M
b100000000100000 h
b100000000100000 #"
b0 .
b0 ?"
b0 F"
b101 7"
b100000000100000 B"
b100000000100000 %"
b0 G"
b100000 =
b100000 x
1{
b0 5
b0 z
b1000 4
b1000 5"
b101 /
b101 4"
b101 >"
b101 0
b101 <"
b100000000100000 <
b100000000100000 ""
b100000000000000001000 '"
b100000000000000001000 }
b111 ,
b111 ]
b111 :"
1@
1I
0G
1K
b10000000000010000000000000000 1
b10000000000010000000000000000 `
b10000000000010000000000000000 r
b101001010100000000100000 :
b101001010100000000100000 c
b100000000000000001000 D
b100000000000000001000 f
b100000000000000001000 A"
b11001000 q
b10000000000000000100000 F
b10000000000000000100000 !
b100000000000000001000 S
1"
#115
b1100100 2
b1100100 _
b1100100 &"
b1100100 0"
b1100100 3
b1100100 i
b1100100 +"
b1100100 1"
b1100100 ,"
b0 9"
b1100100 6
b1100100 3"
b1100100 ="
b1100100 7
b1100100 ."
b1100100 ;"
#116
b1000 -
b1000 \
b1000 6"
b1100100 M
b1100100 h
b1100100 #"
b0 7"
b1000 8"
b1100100 $"
b0 %"
b100000000000000001001 8
b100000000000000001001 R
b100000000000000001001 k
1B
0O
b100000000000000001001 l
0J
0L
b100000000000000001001 E
b100000000000000001001 e
b100000000000000001001 o
b100000000000000001001 )"
b100000100000000101000 C
b100000100000000101000 n
b100000100000000101000 C"
#117
b11001000 .
b11001000 ?"
b11001000 F"
b11001000 H"
1+
b100000110100100000100010 ;
b100000110100100000100010 b
b100000110100100000100010 ~
b11001000 9
b11001000 s
b11001000 E"
b10000000000010000000000000000 t
#118
b11001000 9"
b11001000 ?
b11001000 U
b11001000 g
#120
0"
#126
b1001 -
b1001 \
b1001 6"
b1001 8"
b100100000100010 B"
b11011110101011011011111011101111 q
b110010 v
b100000000000000001001 '"
b100000000000000001001 }
b100010 =
b100010 x
b1001 4
b1001 5"
b11 /
b11 4"
b11 >"
b100 0
b100 <"
b100100000100010 <
b100100000100010 ""
0u
b11001000 G"
b0 H"
b10000000000000000100100 F
b10000000000000000100100 !
b100000000000000001001 S
b11001000 P"
b100000000000000001001 D
b100000000000000001001 f
b100000000000000001001 A"
b100000110100100000100010 :
b100000110100100000100010 c
b11001000 >
b11001000 V
b11001000 p
b11001000 *"
b11001000 /"
b11001000 D"
b1100100 1
b1100100 `
b1100100 r
0K
0I
b1000 ,
b1000 ]
b1000 :"
1"
#127
b11111111 M
b11111111 h
b11111111 #"
b11111111 $"
b11111111 2
b11111111 _
b11111111 &"
b11111111 0"
b10000000000 3
b10000000000 i
b10000000000 +"
b11111111 1"
b10000000000 ,"
b11111111 6
b11111111 3"
b11111111 ="
b10000000000 7
b10000000000 ."
b10000000000 ;"
#128
b100000000000000001010 8
b100000000000000001010 R
b100000000000000001010 k
b100000000000000001010 l
0+
b1 P
b1 j
b1 |
b100000000000000001010 E
b100000000000000001010 e
b100000000000000001010 o
b100000000000000001010 )"
b100000100100000101011 C
b100000100100000101011 n
b100000100100000101011 C"
#129
b1000001010101000000100000 ;
b1000001010101000000100000 b
b1000001010101000000100000 ~
b0 9
b0 s
b0 E"
b1100100 t
#130
b1100000001 ?
b1100000001 U
b1100000001 g
#132
0"
#138
b1010 -
b1010 \
b1010 6"
b11000000 v
b1100000001 .
b1100000001 ?"
b1100000001 F"
b1010 8"
b101000000100000 B"
b1100000001 G"
b100000 =
b100000 x
b1010 4
b1010 5"
b101 /
b101 4"
b101 >"
b1000 0
b1000 <"
b101000000100000 <
b101000000100000 ""
b100000000000000001010 '"
b100000000000000001010 }
b1001 ,
b1001 ]
b1001 :"
b11111111 1
b11111111 `
b11111111 r
b1100000001 >
b1100000001 V
b1100000001 p
b1100000001 *"
b1100000001 /"
b1100000001 D"
b1000001010101000000100000 :
b1000001010101000000100000 c
b100000000000000001010 D
b100000000000000001010 f
b100000000000000001010 A"
b11001000 Q"
b10000000000000000101000 F
b10000000000000000101000 !
b100000000000000001010 S
1"
