Lab4/palindrome_control.vcd
$date
	Sun Feb 11 18:02:01 2018
$end
$version
	Icarus Verilog
$end
$timescale
	1s
$end
$scope module palindrome_control_test $end
$var wire 1 ! select $end
$var wire 1 " palindrome $end
$var wire 1 # load $end
$var wire 1 $ front_ge_back $end
$var wire 1 % done $end
$var wire 1 & a_ne_b $end
$var reg 5 ' base [4:0] $end
$var reg 1 ( clock $end
$var reg 5 ) ending [4:0] $end
$var reg 1 * go $end
$var reg 1 + reset $end
$var integer 32 , i [31:0] $end
$scope module circuit $end
$var wire 5 - base [4:0] $end
$var wire 1 ( clk $end
$var wire 5 . ending [4:0] $end
$var wire 1 $ front_ge_back $end
$var wire 1 + reset $end
$var wire 1 ! select $end
$var wire 1 # load $end
$var wire 1 / front_lt_back $end
$var wire 32 0 b [31:0] $end
$var wire 1 & a_ne_b $end
$var wire 32 1 a [31:0] $end
$var reg 5 2 back [4:0] $end
$var reg 5 3 front [4:0] $end
$scope module compareCounters $end
$var wire 5 4 A [4:0] $end
$var wire 5 5 B [4:0] $end
$var wire 1 6 ne $end
$var wire 1 / lt $end
$upscope $end
$scope module compareValues $end
$var wire 1 & ne $end
$var wire 1 7 lt $end
$var wire 32 8 B [31:0] $end
$var wire 32 9 A [31:0] $end
$upscope $end
$scope module rf $end
$var wire 1 ( clock $end
$var wire 32 : internal_rdData [31:0] $end
$var wire 32 ; rdData [31:0] $end
$var wire 5 < rdNum [4:0] $end
$var wire 1 = rdWriteEnable $end
$var wire 1 + reset $end
$var wire 32 > rsData [31:0] $end
$var wire 5 ? rsNum [4:0] $end
$var wire 32 @ rtData [31:0] $end
$var wire 5 A rtNum [4:0] $end
$var integer 32 B i [31:0] $end
$upscope $end
$upscope $end
$scope module control $end
$var wire 1 & a_ne_b $end
$var wire 1 ( clock $end
$var wire 1 % done $end
$var wire 1 $ front_ge_back $end
$var wire 1 * go $end
$var wire 1 # load $end
$var wire 1 " palindrome $end
$var wire 1 + reset $end
$var wire 1 C s11_next $end
$var wire 1 D s1_next $end
$var wire 1 E s22_next $end
$var wire 1 F s2_next $end
$var wire 1 G s33_next $end
$var wire 1 H s3_next $end
$var wire 1 I s44_next $end
$var wire 1 J s4_next $end
$var wire 1 K sDone1_next $end
$var wire 1 L sDone2_next $end
$var wire 1 M sGarbage_next $end
$var wire 1 N sStart_next $end
$var wire 1 ! select $end
$var wire 1 O sStart $end
$var wire 1 P sGarbage $end
$var wire 1 Q sDone2 $end
$var wire 1 R sDone1 $end
$var wire 1 S s44 $end
$var wire 1 T s4 $end
$var wire 1 U s33 $end
$var wire 1 V s3 $end
$var wire 1 W s22 $end
$var wire 1 X s2 $end
$var wire 1 Y s11 $end
$var wire 1 Z s1 $end
$scope module fs1 $end
$var wire 1 ( clk $end
$var wire 1 D d $end
$var wire 1 [ enable $end
$var wire 1 \ reset $end
$var reg 1 Z q $end
$upscope $end
$scope module fs11 $end
$var wire 1 ( clk $end
$var wire 1 C d $end
$var wire 1 ] enable $end
$var wire 1 ^ reset $end
$var reg 1 Y q $end
$upscope $end
$scope module fs2 $end
$var wire 1 ( clk $end
$var wire 1 F d $end
$var wire 1 _ enable $end
$var wire 1 ` reset $end
$var reg 1 X q $end
$upscope $end
$scope module fs22 $end
$var wire 1 ( clk $end
$var wire 1 E d $end
$var wire 1 a enable $end
$var wire 1 b reset $end
$var reg 1 W q $end
$upscope $end
$scope module fs3 $end
$var wire 1 ( clk $end
$var wire 1 H d $end
$var wire 1 c enable $end
$var wire 1 d reset $end
$var reg 1 V q $end
$upscope $end
$scope module fs33 $end
$var wire 1 ( clk $end
$var wire 1 G d $end
$var wire 1 e enable $end
$var wire 1 f reset $end
$var reg 1 U q $end
$upscope $end
$scope module fs4 $end
$var wire 1 ( clk $end
$var wire 1 J d $end
$var wire 1 g enable $end
$var wire 1 h reset $end
$var reg 1 T q $end
$upscope $end
$scope module fs44 $end
$var wire 1 ( clk $end
$var wire 1 I d $end
$var wire 1 i enable $end
$var wire 1 j reset $end
$var reg 1 S q $end
$upscope $end
$scope module fsDone1 $end
$var wire 1 ( clk $end
$var wire 1 K d $end
$var wire 1 k enable $end
$var wire 1 l reset $end
$var reg 1 R q $end
$upscope $end
$scope module fsDone2 $end
$var wire 1 ( clk $end
$var wire 1 L d $end
$var wire 1 m enable $end
$var wire 1 n reset $end
$var reg 1 Q q $end
$upscope $end
$scope module fsGarbage $end
$var wire 1 ( clk $end
$var wire 1 M d $end
$var wire 1 o enable $end
$var wire 1 p reset $end
$var reg 1 P q $end
$upscope $end
$scope module fsStart $end
$var wire 1 ( clk $end
$var wire 1 N d $end
$var wire 1 q enable $end
$var wire 1 r reset $end
$var reg 1 O q $end
$upscope $end
$upscope $end
$upscope $end
$enddefinitions $end
#0
$dumpvars
0r
1q
0p
1o
0n
1m
0l
1k
0j
1i
0h
1g
0f
1e
0d
1c
0b
1a
0`
1_
0^
1]
0\
1[
xZ
xY
xX
xW
xV
xU
xT
xS
xR
xQ
xP
xO
0N
1M
0L
0K
0J
0I
0H
0G
0F
0E
0D
0C
b100000 B
b0 A
bx @
b0 ?
bx >
z=
bz <
bz ;
bx :
bx 9
bx 8
x7
06
b0 5
b0 4
b0 3
b0 2
bx 1
bx 0
0/
bx .
bx -
bx ,
1+
0*
bx )
0(
bx '
x&
x%
1$
0#
x"
0!
$end
#1
0%
1P
0O
0Z
0X
0V
0T
0Y
0W
0U
0S
0"
0R
0Q
0F
0H
0J
0C
0E
0G
0I
0K
0L
1M
0&
07
b0 0
b0 8
b0 @
b0 1
b0 9
b0 >
b100000 ,
0+
1(
bz :
#2
0(
#3
1!
0$
1/
b1110 2
b1110 5
b1110 A
16
b1011 3
b1011 4
b1011 ?
1N
0M
1(
1#
1*
b1110 )
b1110 .
b1011 '
b1011 -
#4
b10010001101000100001100100001 0
b10010001101000100001100100001 8
b10010001101000100001100100001 @
0&
b10010001101000100001100100001 1
b10010001101000100001100100001 9
b10010001101000100001100100001 >
0(
#5
b1101 2
b1101 5
b1101 A
b1100 3
b1100 4
b1100 ?
0P
1O
1(
#6
b0 0
b0 8
b0 @
0&
07
b0 1
b0 9
b0 >
0(
#7
0!
1$
b1100 2
b1100 5
b1100 A
0/
16
b1101 3
b1101 4
b1101 ?
1(
#8
0(
#9
1!
0$
b1110 2
b1110 5
b1110 A
1/
b1011 3
b1011 4
b1011 ?
1(
#10
b10010001101000100001100100001 0
b10010001101000100001100100001 8
b10010001101000100001100100001 @
0&
b10010001101000100001100100001 1
b10010001101000100001100100001 9
b10010001101000100001100100001 >
0(
#11
b1101 2
b1101 5
b1101 A
b1100 3
b1100 4
b1100 ?
1(
#12
b0 0
b0 8
b0 @
0&
07
b0 1
b0 9
b0 >
0(
#13
0!
1$
b1100 2
b1100 5
b1100 A
0/
16
b1101 3
b1101 4
b1101 ?
1(
#14
0(
#15
1!
0$
b1110 2
b1110 5
b1110 A
1/
b1011 3
b1011 4
b1011 ?
1(
#16
b10010001101000100001100100001 0
b10010001101000100001100100001 8
b10010001101000100001100100001 @
0&
b10010001101000100001100100001 1
b10010001101000100001100100001 9
b10010001101000100001100100001 >
0(
#17
b1101 2
b1101 5
b1101 A
b1100 3
b1100 4
b1100 ?
1(
#18
b0 0
b0 8
b0 @
0&
07
b0 1
b0 9
b0 >
0(
#19
0!
1$
b1100 2
b1100 5
b1100 A
0/
16
b1101 3
b1101 4
b1101 ?
1(
#20
0(
#21
1!
0$
b1110 2
b1110 5
b1110 A
1/
b1011 3
b1011 4
b1011 ?
1(
#22
b10010001101000100001100100001 0
b10010001101000100001100100001 8
b10010001101000100001100100001 @
0&
b10010001101000100001100100001 1
b10010001101000100001100100001 9
b10010001101000100001100100001 >
0(
#23
0N
1D
1(
0#
0*
#24
0(
#25
0D
1F
0O
1Z
1(
#26
0(
#27
1H
0F
1X
0Z
1(
#28
0(
#29
0H
1J
0X
1V
1(
#30
0(
#31
1K
0J
1T
0V
1(
#32
0(
#33
1N
0K
1%
b1101 2
b1101 5
b1101 A
b1100 3
b1100 4
b1100 ?
0T
1"
1R
1(
1#
1*
b110 )
b110 .
b10 '
b10 -
#34
b0 0
b0 8
b0 @
0&
07
b0 1
b0 9
b0 >
0(
#35
0!
0%
1$
0"
0R
1O
b1100 2
b1100 5
b1100 A
0/
16
b1101 3
b1101 4
b1101 ?
1(
#36
0(
#37
1!
0$
b110 2
b110 5
b110 A
1/
b10 3
b10 4
b10 ?
1(
#38
b11001010111111101011101010111110 0
b11001010111111101011101010111110 8
b11001010111111101011101010111110 @
0&
b11001010111111101011101010111110 1
b11001010111111101011101010111110 9
b11001010111111101011101010111110 >
0(
#39
b101 2
b101 5
b101 A
b11 3
b11 4
b11 ?
1(
#40
b11111111111111111111111111111111 0
b11111111111111111111111111111111 8
b11111111111111111111111111111111 @
0&
b11111111111111111111111111111111 1
b11111111111111111111111111111111 9
b11111111111111111111111111111111 >
0(
#41
0!
1$
0/
06
b100 2
b100 5
b100 A
b100 3
b100 4
b100 ?
1(
#42
b1011001111010001111001010101 0
b1011001111010001111001010101 8
b1011001111010001111001010101 @
0&
07
b1011001111010001111001010101 1
b1011001111010001111001010101 9
b1011001111010001111001010101 >
0(
#43
1!
0$
b110 2
b110 5
b110 A
1/
16
b10 3
b10 4
b10 ?
1(
#44
b11001010111111101011101010111110 0
b11001010111111101011101010111110 8
b11001010111111101011101010111110 @
0&
b11001010111111101011101010111110 1
b11001010111111101011101010111110 9
b11001010111111101011101010111110 >
0(
#45
b101 2
b101 5
b101 A
b11 3
b11 4
b11 ?
1(
#46
b11111111111111111111111111111111 0
b11111111111111111111111111111111 8
b11111111111111111111111111111111 @
0&
b11111111111111111111111111111111 1
b11111111111111111111111111111111 9
b11111111111111111111111111111111 >
0(
#47
0!
1$
0/
06
b100 2
b100 5
b100 A
b100 3
b100 4
b100 ?
1(
#48
b1011001111010001111001010101 0
b1011001111010001111001010101 8
b1011001111010001111001010101 @
0&
07
b1011001111010001111001010101 1
b1011001111010001111001010101 9
b1011001111010001111001010101 >
0(
#49
1!
0$
b110 2
b110 5
b110 A
1/
16
b10 3
b10 4
b10 ?
1(
#50
b11001010111111101011101010111110 0
b11001010111111101011101010111110 8
b11001010111111101011101010111110 @
0&
b11001010111111101011101010111110 1
b11001010111111101011101010111110 9
b11001010111111101011101010111110 >
0(
#51
b101 2
b101 5
b101 A
b11 3
b11 4
b11 ?
1(
#52
b11111111111111111111111111111111 0
b11111111111111111111111111111111 8
b11111111111111111111111111111111 @
0&
b11111111111111111111111111111111 1
b11111111111111111111111111111111 9
b11111111111111111111111111111111 >
0(
#53
0N
1D
1(
0#
0*
#54
0(
#55
0D
1F
1Z
0O
1(
#56
0(
#57
0F
1H
0Z
1X
1(
#58
0(
#59
1J
0H
1V
0X
1(
#60
0(
#61
1K
0J
0V
1T
1(
#62
0(
#63
1N
0K
0!
1%
1$
1"
1R
0T
0/
06
b100 2
b100 5
b100 A
b100 3
b100 4
b100 ?
1(
1#
1*
b1011 )
b1011 .
b111 '
b111 -
#64
b1011001111010001111001010101 0
b1011001111010001111001010101 8
b1011001111010001111001010101 @
0&
07
b1011001111010001111001010101 1
b1011001111010001111001010101 9
b1011001111010001111001010101 >
0(
#65
1N
1!
0$
0%
1/
b1011 2
b1011 5
b1011 A
16
b111 3
b111 4
b111 ?
1O
0"
0R
1(
#66
b110011001100110011001100110011 0
b110011001100110011001100110011 8
b110011001100110011001100110011 @
0&
b110011001100110011001100110011 1
b110011001100110011001100110011 9
b110011001100110011001100110011 >
0(
#67
b1010 2
b1010 5
b1010 A
b1000 3
b1000 4
b1000 ?
1(
#68
b10111010101100111101000011010011 0
b10111010101100111101000011010011 8
b10111010101100111101000011010011 @
1&
b11000000000000011101000011010011 1
b11000000000000011101000011010011 9
b11000000000000011101000011010011 >
0(
#69
0!
1$
0/
06
b1001 2
b1001 5
b1001 A
b1001 3
b1001 4
b1001 ?
1(
#70
0&
b11111111111111111111111111111111 0
b11111111111111111111111111111111 8
b11111111111111111111111111111111 @
b11111111111111111111111111111111 1
b11111111111111111111111111111111 9
b11111111111111111111111111111111 >
0(
#71
1!
0$
b1011 2
b1011 5
b1011 A
1/
16
b111 3
b111 4
b111 ?
1(
#72
b110011001100110011001100110011 0
b110011001100110011001100110011 8
b110011001100110011001100110011 @
0&
07
b110011001100110011001100110011 1
b110011001100110011001100110011 9
b110011001100110011001100110011 >
0(
#73
b1010 2
b1010 5
b1010 A
b1000 3
b1000 4
b1000 ?
1(
#74
b10111010101100111101000011010011 0
b10111010101100111101000011010011 8
b10111010101100111101000011010011 @
1&
b11000000000000011101000011010011 1
b11000000000000011101000011010011 9
b11000000000000011101000011010011 >
0(
#75
0!
1$
0/
06
b1001 2
b1001 5
b1001 A
b1001 3
b1001 4
b1001 ?
1(
#76
0&
b11111111111111111111111111111111 0
b11111111111111111111111111111111 8
b11111111111111111111111111111111 @
b11111111111111111111111111111111 1
b11111111111111111111111111111111 9
b11111111111111111111111111111111 >
0(
#77
1!
0$
b1011 2
b1011 5
b1011 A
1/
16
b111 3
b111 4
b111 ?
1(
#78
b110011001100110011001100110011 0
b110011001100110011001100110011 8
b110011001100110011001100110011 @
0&
07
b110011001100110011001100110011 1
b110011001100110011001100110011 9
b110011001100110011001100110011 >
0(
#79
b1010 2
b1010 5
b1010 A
b1000 3
b1000 4
b1000 ?
1(
#80
b10111010101100111101000011010011 0
b10111010101100111101000011010011 8
b10111010101100111101000011010011 @
1&
b11000000000000011101000011010011 1
b11000000000000011101000011010011 9
b11000000000000011101000011010011 >
0(
#81
0!
1$
0/
06
b1001 2
b1001 5
b1001 A
b1001 3
b1001 4
b1001 ?
1(
#82
0&
b11111111111111111111111111111111 0
b11111111111111111111111111111111 8
b11111111111111111111111111111111 @
b11111111111111111111111111111111 1
b11111111111111111111111111111111 9
b11111111111111111111111111111111 >
0(
#83
0N
1C
1(
0#
0*
#84
0(
#85
0C
1E
0O
1Y
1(
#86
0(
#87
1G
0E
1W
0Y
1(
#88
0(
#89
0G
1I
0W
1U
1(
#90
0(
#91
1L
0I
1S
0U
1(
#92
0(
#93
1N
1!
0L
0$
1%
1/
b10000 2
b10000 5
b10000 A
16
b1100 3
b1100 4
b1100 ?
0S
1Q
1(
1#
1*
b10000 )
b10000 .
b1100 '
b1100 -
#94
b11001010111111101011101010111110 0
b11001010111111101011101010111110 8
b11001010111111101011101010111110 @
0&
07
b11001010111111101011101010111110 1
b11001010111111101011101010111110 9
b11001010111111101011101010111110 >
0(
#95
1N
0%
0Q
1O
b1111 2
b1111 5
b1111 A
b1101 3
b1101 4
b1101 ?
1(
#96
b11111111111111111111111111111111 0
b11111111111111111111111111111111 8
b11111111111111111111111111111111 @
0&
b11111111111111111111111111111111 1
b11111111111111111111111111111111 9
b11111111111111111111111111111111 >
0(
#97
0!
1$
0/
06
b1110 2
b1110 5
b1110 A
b1110 3
b1110 4
b1110 ?
1(
#98
b1011001111010001111001010101 0
b1011001111010001111001010101 8
b1011001111010001111001010101 @
0&
07
b1011001111010001111001010101 1
b1011001111010001111001010101 9
b1011001111010001111001010101 >
0(
#99
1!
0$
b10000 2
b10000 5
b10000 A
1/
16
b1100 3
b1100 4
b1100 ?
1(
#100
b11001010111111101011101010111110 0
b11001010111111101011101010111110 8
b11001010111111101011101010111110 @
0&
b11001010111111101011101010111110 1
b11001010111111101011101010111110 9
b11001010111111101011101010111110 >
0(
#101
b1111 2
b1111 5
b1111 A
b1101 3
b1101 4
b1101 ?
1(
#102
b11111111111111111111111111111111 0
b11111111111111111111111111111111 8
b11111111111111111111111111111111 @
0&
b11111111111111111111111111111111 1
b11111111111111111111111111111111 9
b11111111111111111111111111111111 >
0(
#103
0!
1$
0/
06
b1110 2
b1110 5
b1110 A
b1110 3
b1110 4
b1110 ?
1(
#104
b1011001111010001111001010101 0
b1011001111010001111001010101 8
b1011001111010001111001010101 @
0&
07
b1011001111010001111001010101 1
b1011001111010001111001010101 9
b1011001111010001111001010101 >
0(
#105
1!
0$
b10000 2
b10000 5
b10000 A
1/
16
b1100 3
b1100 4
b1100 ?
1(
#106
b11001010111111101011101010111110 0
b11001010111111101011101010111110 8
b11001010111111101011101010111110 @
0&
b11001010111111101011101010111110 1
b11001010111111101011101010111110 9
b11001010111111101011101010111110 >
0(
#107
b1111 2
b1111 5
b1111 A
b1101 3
b1101 4
b1101 ?
1(
#108
b11111111111111111111111111111111 0
b11111111111111111111111111111111 8
b11111111111111111111111111111111 @
0&
b11111111111111111111111111111111 1
b11111111111111111111111111111111 9
b11111111111111111111111111111111 >
0(
#109
0!
1$
0/
06
b1110 2
b1110 5
b1110 A
b1110 3
b1110 4
b1110 ?
1(
#110
b1011001111010001111001010101 0
b1011001111010001111001010101 8
b1011001111010001111001010101 @
0&
07
b1011001111010001111001010101 1
b1011001111010001111001010101 9
b1011001111010001111001010101 >
0(
#111
1!
0$
b10000 2
b10000 5
b10000 A
1/
16
b1100 3
b1100 4
b1100 ?
1(
#112
b11001010111111101011101010111110 0
b11001010111111101011101010111110 8
b11001010111111101011101010111110 @
0&
b11001010111111101011101010111110 1
b11001010111111101011101010111110 9
b11001010111111101011101010111110 >
0(
#113
0N
1D
1(
0#
0*
#114
0(
#115
0D
1F
1Z
0O
1(
#116
0(
#117
0F
1H
0Z
1X
1(
#118
0(
#119
1J
0H
1V
0X
1(
#120
0(
#121
1K
0J
0V
1T
1(
#122
0(
#123
1K
1%
1"
1R
0T
1(
